-92.698	 -72.074
 -94.02	 -54.108
-75.803	 -67.539
-50.225	 -66.507
-62.027	 -50.053
-77.687	 -40.595
-95.055	 -36.087
-95.745	 -18.052
-73.482	 -20.668
 -51.88	 -27.575
-32.613	 -45.075
-23.974	       0
-48.004	       0
-71.982	       0
-95.973	       0
-95.745	  18.052
-73.482	  20.668
 -51.88	  27.575
-32.613	  45.075
-50.225	  66.507
-62.027	  50.053
-77.687	  40.595
-95.055	  36.087
-118.84	  36.687
 -94.02	  54.108
-75.803	  67.539
-92.698	  72.074
 114.03	     -90
 91.204	     -90
  68.39	     -90
 45.608	     -90
 22.792	     -90
 91.204	      90
 92.698	  72.074
 94.016	  54.142
 75.803	  67.539
  68.39	      90
 45.608	      90
 50.181	  66.507
  62.01	  50.103
 77.631	  40.595
 95.052	  36.133
 95.745	  18.052
 73.482	  20.668
  51.88	  27.575
 32.613	  45.075
 22.792	      90
      0	      90
 24.027	       0
     48	       0
 71.982	       0
 95.973	       0
 95.743	 -18.107
 73.482	 -20.668
  51.88	 -27.575
 32.613	 -45.075
 50.181	 -66.507
  62.01	 -50.103
 77.631	 -40.595
 95.052	 -36.133
 118.84	 -36.687
 94.016	 -54.142
 75.803	 -67.539
 92.698	 -72.074
